<?xml version="1.0" encoding="UTF-8" standalone="no"?>
<svg
   xmlns:dc="http://purl.org/dc/elements/1.1/"
   xmlns:cc="http://creativecommons.org/ns#"
   xmlns:rdf="http://www.w3.org/1999/02/22-rdf-syntax-ns#"
   xmlns:svg="http://www.w3.org/2000/svg"
   xmlns="http://www.w3.org/2000/svg"
   xmlns:sodipodi="http://sodipodi.sourceforge.net/DTD/sodipodi-0.dtd"
   xmlns:inkscape="http://www.inkscape.org/namespaces/inkscape"
   width="126.11231"
   height="200"
   id="svg2"
   version="1.1"
   inkscape:version="0.91 r13725"
   sodipodi:docname="open_access_logo.svg">
  <defs
     id="defs18" />
  <sodipodi:namedview
     pagecolor="#ffffff"
     bordercolor="#666666"
     borderopacity="1"
     objecttolerance="10"
     gridtolerance="10"
     guidetolerance="10"
     inkscape:pageopacity="0"
     inkscape:pageshadow="2"
     inkscape:window-width="1920"
     inkscape:window-height="1053"
     id="namedview16"
     showgrid="false"
     inkscape:zoom="0.944"
     inkscape:cx="171.39294"
     inkscape:cy="73.843469"
     inkscape:window-x="0"
     inkscape:window-y="27"
     inkscape:window-maximized="1"
     inkscape:current-layer="svg2"
     fit-margin-top="0"
     fit-margin-left="0"
     fit-margin-right="0"
     fit-margin-bottom="0" />
  <metadata
     id="metadata4">
    <rdf:RDF>
      <cc:Work
         rdf:about="">
        <dc:format>image/svg+xml</dc:format>
        <dc:type
           rdf:resource="http://purl.org/dc/dcmitype/StillImage" />
        <dc:creator>art designer at PLoS, modified by Wikipedia users Nina, Beao, JakobVoss, and AnonMoos</dc:creator>
        <dc:description>Open Access logo, converted into svg, designed by PLoS. This version with transparent background.</dc:description>
        <dc:source>http://commons.wikimedia.org/wiki/File:Open_Access_logo_PLoS_white.svg</dc:source>
        <dc:license
           rdf:resource="http://creativecommons.org/publicdomain/zero/1.0/" />
        <cc:license
           rdf:resource="http://creativecommons.org/publicdomain/zero/1.0/" />
        <cc:attributionName>art designer at PLoS, modified by Wikipedia users Nina, Beao, JakobVoss, and AnonMoos</cc:attributionName>
        <cc:attributionURL>http://www.plos.org/</cc:attributionURL>
        <dc:title></dc:title>
      </cc:Work>
      <cc:License
         rdf:about="http://creativecommons.org/publicdomain/zero/1.0/">
        <cc:permits
           rdf:resource="http://creativecommons.org/ns#Reproduction" />
        <cc:permits
           rdf:resource="http://creativecommons.org/ns#Distribution" />
        <cc:permits
           rdf:resource="http://creativecommons.org/ns#DerivativeWorks" />
      </cc:License>
    </rdf:RDF>
  </metadata>
  <g
     id="g8"
     transform="matrix(0.20441915,0,0,0.20441915,-2.3587905,-2.2101984)"
     style="fill:none;stroke:#f68212;stroke-width:104.76399994">
    <path
       d="m 111.387,308.135 0,-35.727 a 209.21,209.214 0 0 1 418.42,0 l 0,258.426"
       id="path10"
       inkscape:connector-curvature="0" />
    <circle
       cx="320.004"
       cy="680.729"
       r="256.08301"
       id="circle12" />
  </g>
  <circle
     cx="63.261799"
     cy="137.13397"
     r="17.667683"
     id="circle14"
     style="fill:#f68212" />
</svg>
